                               ..  c:,......,clc.    .                             
                             ..::......     ......  .,..                           
                            .:'.                      .'..'                        
                         ';,;..                          ,c;                       
                        ;c::;,..                        ..,:;.                     
                      .c;'',;;;,'.. ......          .....',;,,..                   
                      ..  ..''','...,;,',.          .',';,,,..;'                   
                    .,.     . ... ...,'... ......    .',;'... .''                  
                    ..              ..  .  'codooc;.   ... ..  ..                  
                   ,;                      :x00000k:.           ,l                 
                  ...                     .oO00KKKOl.           .'                 
                  ..               ..  ...,x00KKKKOl,''         ..                 
                    .             ':. .,o;:k0000OOkc:oc..       ,:                 
                  .'.         .,..:;..:xko:k0Ododdxodkx:',.    .';                 
                  ..''       .;;':l:codO0kdk00kxl:codkkkoo'  ...                   
                     ...    .;loll,coxO0K0000KK0k;:dOkd00d::c,;.                   
                     .lc;;;',lddkkclxOKKKKKKKKKK0kxkO0KK0lcddc.                    
                       ,;odl,cxO000O00KK0O0KKKKKKKKKKKK0kdddd:.                    
                         cddlcoOKKKKKKKKklOKKKKKKKKKKKK0ddo:;.                     
                         .;o:cldOKKKKKK0OdOKKKKKKKKKKKOo:'..                       
                           .'.':oO0KKKKKK000000KKKKKKOc   .'                       
                           ..   .;dk00KKK000000KKKK0d'   .'                        
                            .c.   .,lxO0KKKKKKKKK0Ox; .'::.                        
                             .','.. .,ldxO0KKK00OkOkolo'.                          
                                ':c::llcldxkOkxdxO0OOO,                            
                                  'xxdoddoddddok0O0K00O.                           
                                  ,ddddddllooox000O0K0O,                           
                                 ,Oxdddxo.   .c000O0K00kl                          
                            .kxxdxxxddxko     ,k00000K000OxkO;.  ...               
               '.....k0OOOO0000000OxxO0k;     .o000OO0000000OOOOOO0Xx....          
          ;:,':Okxxl;x000000KKKKKK0O0KKk:,,;;;;lO0OOkkO00000000Ooclooloxx'',;.     
       .ookkxooo::ol:dO0000KKK000000KKKOo;,lxoloxkkO00O00000000l:lol::ldoodxkd;    
       ,0Odloood::ooclk00000000OO00000K0d:,:ddlxO000000OO00000O;:oo:,ldoooooool    
