                                    ......  ......                                 
                                ...;oc::;;,,,;;;:l:....                            
                             ,..:;,''';:cc:::;;,'..',;c,.                          
                           .;;'....';cooool:,,;::;'....',.                         
                          .;'.....',;;clllc;,,'',;;'.....,'                        
                        .;;.......,,',,:llc;''''',,,......,c.                      
                       .l:'.......''''',;:,'''.''','.......,l;.                    
                      .oo:...........''.......'.'..........,clc.                   
                     .ldo:....     ......  .........  .....'loll;                  
                     ,ddo:....       .............    .....'lddol.                 
                     :ddd:....     ......     ......    ...'lddll'                 
                    'oxkxc.....  ..........................'cdxllx                 
                    ;oxxxc.............,:cllcc;'...... ....'cddlld                 
                    ;oxxdc...........:dkO0000Oxo:..........'cddool                 
                    'lxxl;..........:x0KK00OOO00kc.........':odool                 
                    'lkxc'..........:k00OOO00KKKOl'.........,lddol                 
                    ,lkkc...........'lxkO00KKKK0x;..........'cdooo                 
                    .lxOx:............,ldkkOOkdl,...........'lxol,                 
                     ,dkOo,...............''''.............'ckkoc                  
                     'lxOd;'..............................':xOdo:                  
                     .cdkd,'''..........................'''ckx:c'                  
                     .,;lo''''...........................'':o:..;c.                
                   .;;'.',............''',',,',,,,'........''....;c'               
                  ':;'..  ......... ...''',,,,;,,'..........   ...,c:.             
                 ::,'..    .......   ...'''',;,''...........    ...':c,            
               .c;'....     ......   ...''..',,,,.. .......       ...';cl.         
            ..,,'....      .. ......  ........','..........          ...';;..      
.        ,,';'.....         ..  ....  .........'.......  ..             ...',':..  
,,'',;::;;,'.....          ...         .........         ..                ...';;,'
''''',,,'......          .....         .',''....         .                    .....
.............         .........        .';;,,'.         ...                        
...........          ............       .,;;;'.       ......                       
........            ..............      .,,;,'.       .........                    
