                               .';coddoc,...;codddl;..                             
                             .,cooddxxddollodddxxxdol:..                           
                           .,lodxxxxxxxxxxxxxxxxxxxxxdo:'.                         
                          .cdxxxxxxxxxxxxxxxxxxxxxxxxxxxl:.                        
                        .,ldxxxxxxxxxxxxxxxxxxxxxxxxxxxxxdl:                       
                       ';ldxxddxxxxxddxxxxxxxxxxxxxxxxxxxxdl'                      
                      .;lddoodxxxxxxddxxxxxxxxxxxxdxxxxxxxxdo;.                    
                     ',cllldxoxOkddddxxxxxxxxdxxxxxkOOxoxxxxdo.             '.     
                    .,;::okkxkkkxddddxxxxxxxxddxxxxxxkkxxOOkxdd;            ,.     
                   .';;:dOkodxxxxdldddxxxxxxxddxxxxxxxxxox0Okxdoc                  
                   .,;,:xOo:odxdddcdooxxxxxxxddxxxxxxxxdookkxxxxo.                 
                   ';,,:odclddddod:oloxxxxxxxooxdxdddxxdxddxdxddl,                 
                   ',,;;:;:oldxdoo:ooldddxdxxoldodooodddddddxxxdl.                 
                   .',;:;;::cddooo:oolodldldxlclldooc:ddldddxxxoc                  
                   .',;:;;;,lolodoclocclcocoxl:lloxxl:coloodxxxoc                  
                    .';;;;,;lllodolclol::llodc:oldkkolcclcldxxd:.                  
                    .,;;;;,;:clccc;''cc,;coloc;c::,:::ol:;cdxdl;                   
                    .,,,;;;;;ldodkl.;oxl;:lodddxd;.cxxkd:,cddo:.                   
                     .,',:::::oxO0kxk0KOxdox00KK0kxOKKOddlcll,                     
                       ,;;;;::;cd0KKKKKKK0O0KKKKKKK0Oxddddl:c.                     
                        ..';;:;,;oOKKKKK0kO0KKKKK0Oxolololc;'                      
                 ...,codxdldl;;;,;oOKKKK0kk0KKKKK0kdoc;,:okkxxxdl;'...   .         
              ,;;cdkOOOOOOko;'',;:ldO0KKK0000KKK0Oxo:,,;;lx0KKKK0K0kdc:;'          
           ,lxk0KKKKKK00xo:',',cddl::dO0KKKKK00OdcldOx::llccdk0KKXXKKKKOOc'.       
         .k00KXXXXXXXKkoc::;,cxOOkddlokkkkOkkOOkddkO0K0o:cllccldOKKXXXXXXKx'.      
        '0KXXXXXXXXKkcclllccx0K0OOkkkOOOkoodkOOO000KKXXKOdccool:lkKXXXXXXXK0c      
       .ok0KXXXXXXXO:codlco0KXKKK0OOOkkOOOkOOOO0KKKXXXXXXKOl:ool'lKKXXXXXX0xd,.    
     ..:d:l0XXXXXXKx,ldd::OKXXXXXKK000OkkO00O0KXXXXXXXXXXXKo,ooo::xKXXKKKX0l::'..  
   ...'l:;dKXXXXXKkc,:cl;cKXXXXXXXXKKK0OkOOO0KXXXXXXXXXXXXXx;:::;';lk0KXXXKd;,,... 
  ...'l;,cOXXXKOo:,...'''cKXXXXXXXXXXXKOooxddkKKKXXXXXXXXXXk:.......';cx0KK0l,;;...
  ..'lx;ckKK0xc,........'oKKXXXXXXXXXXKk:;dc;dKKKKXXXXXXXXXO:..........':xKK0o:cc..
 ..'o0OdOKXOc.......  ..;xKKKKKXKKKKKKXOcoOlcxKKKKKXXXXXXKXOc............:0KKKO0k:.
 ..:OKKXKKKd.......    .;kKKKKKKKKKKKKKKKKKKKKKKKKKKKKKKKKKOl..  ........;kKKKKKKd.
