                              ..,:lddxdl:'.,codxxdo:,..                            
                             .:ldddxxxxddoloddxxxxddoc,.                           
                           .;ldxxxxxxxxxxxxxxxxxxxxxxdoc;.                         
                         .,cdxxxxxxxxxxxxxxxxxxxxxxxxxxxol,                        
                         ;lxxxxxxxxxxxxxxxxxxxxxxxxxxxxxxdoc.                      
                      ..coxxdddxxxxxddxxxxxxxxxxxxxxxxxxxxdlc.                     
                     .,:oddodddxxdxdddxxxxxxxxxxxxdxxxxdxxxdo;.                    
       '.           .';clclxdok0kddodxxxxxxxxdxxxxxkO0xlxxxxdo:.                   
       ,.          ..,;;cdkxxkkxddoddxxxxxxxxddxxxxdxkkxdkOkxdo;                   
                   .';;:xOxodxxxxdldddxxxxxxxddxxxxxxdxxodO0kdxdc                  
                  .',,,ckkl:odddddcdooxxxxxxxddxxxxxxxxdolxOxdxxl;                 
                  ',;,,:oo:lddddoocdloxxxxxxxooxdxdddxxdxddddxxdlc                 
                  ',,,;::;:oldxolo:ooldddxdxxoldldooooddddddxxxol;                 
                  ,,',;:;;:;lodooo:oolldldldxlcoldooc:odloddxxxoc                  
                  .,',;:;,,;ollodoclolclcocoxl:llokxlc:oolldxxxoc                  
                   .',;;;,,:lllodocclol;:llloc:ocokkocc:l:coxxdc.                  
                    .,;;;,,;:clc:c:''cc,;collc:c::,;::ll:;:oxdo;                   
                     .,,;;;;;ldodkc.;oxl;:lodddxd;.cxxkd:,:odo:.                   
                     .,',::::coxO0kxO00Oxdox00KK0kxOKKOddlllc:.                    
                      .,;;;;:;;cx0KKKKKKK0O0KKKKKKK0Oxddddl;.'                     
                       ...';;:;,;oOKKKKK0kO0KKKKK0Okololllc,,.                     
                 ...,codxoldc;;;,:oOKKKK0kk0KKKKK0kdoc;,:lxkxxxdl:'...             
             .,::odkOOOOOOxl,'',;:lxOKKKK0000KKK0Oxoc;,;;cx0KKKKKK0Odlc;'          
           ,lxk0KKKKK00Oxl;',',cdoo:cdO0KKKKK00Odccdkkc:llccdk0KXXXKKKK0kl:.       
         .dO0XXXXXXXXKkoc::;,lxOOkdolokkkOOOOOOkdoxO0K0o:cllccldOKXXXXXXXKko'      
        ,0KXXXXXXXXKkcclolcckK00OOkkkOOOkoldkOOO0000KXXKOdc:ool::xKKXXXXXXKOl.     
       ,xOKXXXXXXXXk,codl:o0KXKK00OOOkkOOOkOOOO00KKKXXXXXKOl;ooo'c0KKKXXXXKkxo.    
      .cl:dKXXXXXXKd,ldd::0KXXXXXK000OOkkO0OOO0KXXXXXXXXXXXd,looc:dKKXKKKX0o:::.   
     .:c,:kKXXXXXKx:;cll:lKXXXXXXXXKK00OkkOO0KXXXXXXXXXXXKXkc:cc;',lx0KXKXKk:','.. 
    .:c,'o0XXXKOo:,..''',oKXXXXXXXXXXKKOdokxdOKKKXXXXXXXXKXOc.'.....';cx0KK0o,','..
    lol;lOKK0xc,........,dKKXXXXXXXXXXKkc:xl;oKKKKXXXXXXXKXOc..........';dKK0d::c..
   lOOdd0KKk:....... ...;kKKKKKXXXXXXXKk:oOl:xKKKKKKKXXXKKK0l............;kKKKOOkl.
   O0KKKKK0l.......   ..:OKKKKKKKKKKKKKK00K00KKKKKKKKKXKKKK0o..   .......,dKKKKXKk'
