                   .....',:cc::::c:ccclllcc:,.............,cccccccc:'              
                 .,;;::::::ccccccc:c::::ccc:;:;'..........';:::::::::'.            
           ......:ccccccllccc:::ccccccccc:;:clc:'.'.........;,'''..'',;.           
          .,;:::::ccclloddddoolcccc:cc:;;;clllc;':cc:'......,:c:;,'...';,.         
          ';clllllllllodxdooollllllccc:;:ccclc;,;cll;.':::;,,;:ccc:;,'.';:.        
       .;:::llllllooolodddolllllllcccccccc::;,,;ccc:,.'cllllc:;,;cccc:;',::,       
       'cccclllloodxddoollllllcccllcc:cccc:;,,;c:;;,..,clllllc::,,;:cccc::cc;.     
      .,clllldodxdxxollllllllllc:;:ccccc:;,;;::,','...;clllllllcc;,',;:clcccc:'    
     .;colllldoxdoooolc:::ccllllc;'',;:c;,;::;'.......';:cllllllcc:;,'',;:ccccc;.  
   .,:coddolclldocccllcc;,'',,;:cc;...',;;;,'.......,,,'',:cllllllcc::;,''',;::cc:,
  'ccccoxxocccccclc::cclcc;..'''',;'';;''''.......':cc::;'',;:cllllllcc::;'''''',:c
.;c::clcolccc;ccodlc:;:lolc:;::,'..'cdocc;c;....,;cllllccc:;,,,;:cclllllccc:;,'''',
.;;';cccc;;::':cdkOkdc:coddoccdxo:..:odxkkxc'.,;cllllllllccccc:;;;;;:cclllllccc::;,
 ..,:::c:',::',ccx00o,:oddxkxoxOOd;:ldkxkOO:,:ccccccclllllllccccc:::::::cccccccccc:
   ;,';c,.'::'.,;cxd::,lO00000000kddO0Okk0k;.':ccccc::::cccccccc:;;;;;;::;::::::::;
     .;c,..::'..'''ckOdcd0KKKKKKKK0O0K000Oxo:,'',;::::;,''',;::::::::;;;,,'''''....
      ':'..,,,.....;k0KOk0KKKKKKKKKKKKK0kkxkkxl;..',,,,;:::cc:;;,,,,''',,,,'.''''''
      ..... ...   'cOKKKKKKKKKKKKKKKKKK0kkkkkkkxo;'..',clc;,,'...',,,'...........''
                 ;oO0KKKKKKKKKKKKKKKKKK0Okkkkkkkkkd;':l:,''.......''''''...........
                 dxO0KKKKKKKKKKKKKKKKKK0Okkkkkkkkko;;c,'.'''''...,,,,'''.. ...     
                 ;:ok0K0OOKKKKKKKKKKKKK0kkkkkkkkkl':c,..''...'...',;;;;;,. ..      
                   .cxOOkO0KK00KKKKKKK0Okkkkkkkxc.,c;.''''..........'''......      
                     ',dxO000000000000Okkxxdddd;..::'.'''''..''..............      
                       .'ckO000000000Oxol'.;,'....:;....'''''''...............     
                          'oxO0000Okol;' .:,... .,:,....'''''''...............     
                            ;coooll:'.   .,......;;'..''.'..'.................     
                              ...        .'.....';'..''.....................       
                                          ......;''.''''.................          
                                        .......,''...'................             
                                       .'.....,'...................                
                                    .','.....,,.................                   
                                   ,;,.....',,..............                       
                                  .;,'.....;,..............                        
