             ..  ....'llc:::::::::cclo....                                         
        ....;xx,,dl:;;:;;,'''''''''',,;:ld'...                                     
    ',';l:;,,'',,,;;:;;,'...............';;lol,                                    
    lolc;,'.....'',,;;,''.................',;clc.                                  
   ..:l;'.........',,,'.....................'',;:l;                                
   oolc,..........''..............''.'...'......':lc                               
   .cc,..''.........','.........''',,'',,,''.....'cc                               
    :;..:c;'......';lol,.........',::;;::;,'......;;                               
    .':.,;'.....',codxkdlc::,....',;:::::;'.......''                               
   oll;  '....':cldkOOOOOOOOxl;'''.'',;;,,'........:o                              
   '''   ...';codddxkOOOOOOOkd:'....''',''.........;l                              
        ..':;cdxollodxOOOOOOdc,......'.............;:                              
            ,cddxkxllxOOOOOxc;,'.''................';o.                            
            ,lxO00d:cxOOOOkocc:',:,'................:o.                            
            .ckO0x;,oOOOOOkoll:,;l:'................,'                             
             :kOOkdxOOOOOOOkkxoccol;'............  ,c                              
             :kOOOOOkOOOOOOOOOOkxdl:,'....... .. .,cl                              
             .xOOkddkOOOOOOO00KOd:.,c;....     ...''                               
       .....''ckOxdkOOOOOOOOO00kl:cdo;........':.                                  
      .;,'',:ccdkkkOOOOOOOOOOOOOOOOOocc;.,ol::d.                                   
   ;,.','..',,';okOkdxxkkOOOOOOOOOOOkxdlcoxlllc                                    
.;.......''''''';lxkkxxxxOOOOOOOOOOOOkxddddd:;c..                                  
.......,;::;,,''',cxOOOOOOOOOOOOOOkxddoo:;;;..';c,.''                              
;;;,'',;:;,'''',,;lkkOOOOOkkkkxxxxkkkxxkko:.....'.':c,,.                           
;,..',,,''...,c:cx00OOOkocloooodkOOOOOOk00Ox:'......',;;;'                         
.....'......;ol:d0KKK0Odc:loddxOOOOOOOOkk00Kx:..........'';c.                      
''.........:xl:cxKKKK0xdooodxOOOOOOOOOOOkkOKKd,...''''....',;'                     
:;;'..    ;xd::ckKKKKkxkxooxOOOOOOOOOOOOOkO0KOc'..',;;,..';;,::.                   
kdl::;'..'dOl::ckKKK0xkkxodkOOOOOOOOOOO0000KKKkc'...';;,...;c;:'                   
kkkkkxxxxxOk::::x0KK0kkkdoxOOOOOOOOO00KKKKKKKKK0d,.....''..':lcc:                  
00KKK0KKO0Kx::;;lOK0OOOkxdxkOOOOO00KKKKKKKKKKKKK0x;.........;o::,                  
0000K00OO00d;;;;:d00kOOOOOOOO00KKKKKKKKKKKKKKKKKKKk:........;l,.                   
0000000kOOko;;;;;lOOkOOOO00KKKKKKKKKKKKKKKKKKKKKKKKo'.......;o,                    
