                    .....          .....                                           
          .........,:;;,,'''...'''',;:co,...                                       
        .,cc:::::;;;;;,'..............',;cl:,'                                     
      .,,;,,,,,',,;;;,'..................',:clc                                    
     .,,.......''',,,,'....................',;::l,                                 
   ccc:,.........'''..........................',:c;                                
   .::,.............''..........''''''',,'.....'';'                                
    ;;..,;,.......';c:,.........',;;;,,::,'.....',c:                               
    ..,;c,.......,codol:;,,'....',;:::::;,......',::                               
   c;;,';'....',:ldxOOkxxxdoc;'..'',,;:;,''......';,                               
   ... ,;'...,lcoxxOOOOOOOOkdl,....''',,'......'..,;,                              
       .,.',:cddooodkOOOOOOkd:'....''''........'..'co                              
       .'',cclxoodoldOOOOOOxc,'..'.................;c                              
        .. ;clxkOkl:dOOOOOxl::;',;.................,c                              
           :ldO00d,,xOOOOOxcc:,';:,................;l                              
           .cxOOkolxOOOOOOkxdd:;cc:'............. .;o                              
            ckOOOkO0OOOOOOOOOkxooo::'........... ...                               
            cxOOOkxxOOOOOOOO000kl;.,;'....     ...                                 
   .........cdkOkookOOOOOOOO00Od;';oc'.. ......:'                                  
   cc:;;,,;:clokkkkOOOOOOOOOOOOkxkOxc;;'.,cc:c;.                                   
    ,;:,'.',;,;lkOOkxkOOOOOOOOOOOOOkxdl::odl;                                      
'c,........'''',cxOkxxxxkOOOOOOOOOOOOkxddxxd;;o'                                   
'......',;;,,''',cdOOOkOOOOOOOOOOOkxxddo::c:..;:...''                              
::;,'',;::;,''.'';okOOOOOOOOOOkkxxxkkddxd:'....'..,:c,,:.                          
c:,'',;;;,'..';,:dkOOOOkdlodddddkOOOOOkk0Oxc'.......',;:;::                        
,'''''''....,c::x0K000Oo::loodxOOOOOOOOkk00Ol,...........',;;.                     
...........,lc;lOKKKK0xoooodxkOOOOOOOOOOkkO0Oc'...'''''...'',l;.                   
,''...  . ,oo;;oOKKKKkxxdookOOOOOOOOOOOOOxk0Kx;....,;;;'.';;,;l;                   
dl:;,..  .okc;:oOKKK0xkkxodkOOOOOOOOOOOO000KK0x:'....,;,'.':c::'                   
kxxdolc:cokx;;:lkKKK0xkkdodOOOOOOOOOO00KKKKKKKKOo,.....''..':lcc:                  
00OOOkkkkO0x;;::d0K0OkOkxdxkOOOOO000KKKKKKKKKKKK0x;.........,oc:,                  
00000000O0Kx;;;;cxK0kkOOOOkkOO000KKKKKKKKKKKKKKKKKkc........'l'.                   
000K000O0KKd;;;;;o00kkOOOO00000KKKKKKKKKKKKKKKKKKKKd,.......,l'                    
