                                        .MMMMMO                                    
                         '......'        ......                                    
                :,......;olllccll,.';;,;                                           
             .c,c:;,'..''''''''''',;:lool,                                         
          ..,c:;,'''''''''''''''.....,;:cd;                                        
       ...ol:::::;,'''''''''''''''''''''',;cc.                                     
    .',c;'',;::c:;'''''''''''''''''''''''''',;.                                    
   ':;''''''',;:;,''''''''''''''''''''''''''',;l.                                  
.o:;'..''''''',,''...''''''''''''',,;;'''''''',c.                                  
.;;:,'''''''''''';;...'''..''',;,,,:::;'''''''',..                                 
 '::;,'...''''',codl,''.....'';::::c::;,''''''',l,                                 
.llo:....'''..'coxOOkddddc,''',;,,:c:,,''''''''',.                                 
.c,,,,:''''.';coxOOOOOOOOOxc,'','',:;,'''''''''..::                                
  ..,ll''..,loloxOOOOOOOOOkl,.''''',,''''''''''..c;                                
 .kc:cc;'.'cdxdlcdkOOOOOOOkc''''''''''''''''''...;,                                
  ...;l:'.,codxxccdOOOOOOOx;:,..''''''..''''.....,'                                
      'l':;:k00x;;xOOOOOkdlcc;'..'.'''...'.'.....:;                                
       'loclkOOo;lOOOOOOkxdddo:;,....'..........,;'                                
        ,;coOOOOOOOOOOOOOOOkkkxl;'.............;'                                  
   .oloo. ldOOOOkxkOOOOOOOO000d;'.,..........,:.                                   
l:;;;;;:::loxOOkddkOOOOOOOOOOOo::od;,,'..':,;:           .ol::::clc                
:lc:::;',;::cxkkxkOOOOOOOOOOOkkkkOkoloc,,lc,..;  .. clc::;;,'',:ccc::l;            
,lc:::;;'.',,:dkOkkkkkkOOOkkkkkkkkOkkxlcoxo:;:c.,c;',;;;,',:c,;c;......            
;;,.......'''';lkkkkkkkkkkkkkkkkkkxxxxdoodx;..'''''',,''',,,,,;:;.'                
xxd:....',,,''''cdkOOOkkkkkkkkkkxxdooool:;,...''''''''''',;::;'''',':.             
kdc;'',;:;,,,'''';okkkkkkkkkxdoodxkkkxdxdo:....''...........''..'''','cc.          
oc,'',;::;;,''...':dxxxdollooodxkkkkkkxxxkko,.''...................'''',;.         
c,''',,,,'.....,lkOOkxxlcloodxkkkkkkkkkkxxxkd:'''....................'''','        
''''''........,dO000Oxoooooxkkkkkkkkkkkkkxddkxc,.........................',c'      
'''..........,:xO000OxdxxdookkkkkkkkkkkkkkkkOOOxl,........................';'.     
...........,;::ok000OxdxkxloxkkkkkkkkxkkOOOOOOOOOxl'...............;:'.....'c;     
ccccll:...co:;::dO00OxdxkxooxkkOOkkkkOOOOOOOOOOOOOOkc...............:dl,...':,     
OOO00x;,.:kd;;;;lk000kdxkkdoodxOkkxkOOOOOOOOOOOOOOOOkl..............'okd,..';'     
