         .... ..............cokKK00Oo,;:. ..,'....... .............                
         ....  ....... ...,,;lkK000Olld:. .,;,...'..  ...............              
         ,,..   ....... ..'::cxO0K0OOko,..',,,..','. ...',;'... ......             
          :,''.. ......'....,',lk0000xllooll' .,;lc;,',ldlc;...  ......            
           .,;,.'..'...;,,:dl..okO0K0OOO0KKo..cxkO00xlkkodd:...  ......;c          
             '  ,.... .,:cokd,cO000KKKKKKKKOkk0KKKKK000xld:....   .....,;.         
                   .,  .;cllok00K0k0KKKKKKKKKKKKKKKKKKOdo,.......  .....'''        
                   ,;   .,clok000xckKKKKKKKKKKKKKKKKKOxdc.......,.  ......,.       
                   ',    .':ldOK0xcx0KKKKKKKKKKKKKKKkollc......','   ........      
                           .'cok00OO000000KKKKKKKK0xoldo'......,;,..   .....'...   
                   ..        .,coxO00K000KKKKKKK0Odlldx; .....,;;,....       .,:.  
                   ';        ..';:coxOOO0KKKKK0Oxllodo,  ....';;;;'......      ..' 
                   ',     ..',;;;;;;:cdk0KKKOxoolooc,.  .....';;;;'..........   .'.
                   .'....',;;;;;;;;;;;;:llol::loo,..    .....';;;,. ..............;
                  ,;;;:cc:::;;;;;;;;;;;;;. 'colol.   ........,;;;.     ............
                  ,;;:clolcc::::;;;;;;;;;'  .cllo.   .:'..;,.,;;;..       .........
                   .,;;:cloollllcc::;;;,'.   .:od.   .;c,;c,.;;;;,..     ......',;:
                    .,'';:llooloolll:,..      .dx,.   .:c:,.';;;;,,;,,'',,,,..,:cc:
                     ....,;cllllllc:,..       .cd:.    .'...;;;;;;::::::::;..:ll:,.
                     .:,...;:ccc:;,'...       .oo'     ....,;,;;;::::::::,.'clc;.'c
                       ;:,.;;:;;;;;,..        .dx'     ...',;,;;::::::::,.'clc,.,cl
                      ..;;,c;,;;;;:;,'''..    .;;.     ...',;;;;::::::::..:lc'.;lll
                     ':cc;'c;',::;;;;;;::;.        ..   ..';;;;;;:::::::'.:c;.;llll
                    .;;cl;'c;',:;;;;;;:::;.        ..   ..,;;::;;;::::::'.;c;.;lllc
                    .;;:c;.c:',:;;::;;:::,          ..   .,;::::;;;::::;..clc.,llc:
                    .;;:c:'cc'';;;::;;::;.         .''   .';::::::;;::;..:lll.'cc:;
                    .;;::c;,c;,;:::;;;::;.         ...  ..';::::::;;;;,.,lllc.'cc;;
                    .;;::c:.;:;::::;;;::,. .        ..  ';,,;::::::;;;.,cllc'.;l:;,
                    .,;:;:c,;;:::::;;:::,  .           .;:;;:::::::::;';lll;.;lc:;'
                    .';:,',;::::::;;;::;'   ....     .';::;;::::::::::;::c:.,cl:;,.
                    ..;:,..;;;;;;;;;:::,.  .,lo'    .'::::;;::::::::::::::,.:lc:,..
                    .',,........,;;;::;'  ;cdkxl,....;;,,;;;::;'....''',;;;;cc:,...
                    .;,'..     .;;;:::,. .okkkkkd,...'...',;::,        .,;::cc:'...
